module simonwaldherr.de/go/golibs

go 1.18

require github.com/rs/dnscache v0.0.0-20211102005908-e0241e321417

require (
	github.com/modocache/gover v0.0.0-20171022184752-b58185e213c5 // indirect
	github.com/sozorogami/gover v0.0.0-20171022184752-b58185e213c5 // indirect
	github.com/yuin/goldmark v1.4.13 // indirect
	golang.org/x/mod v0.6.0-dev.0.20220419223038-86c51ed26bb4 // indirect
	golang.org/x/net v0.0.0-20220812174116-3211cb980234 // indirect
	golang.org/x/sync v0.0.0-20220722155255-886fb9371eb4 // indirect
	golang.org/x/sys v0.0.0-20220818161305-2296e01440c6 // indirect
	golang.org/x/tools v0.1.12 // indirect
)
